EESchema Schematic File Version 4
EELAYER 30 0
EELAYER END
$Descr USLetter 11000 8500
encoding utf-8
Sheet 1 1
Title "EC155 Controller"
Date "2020-12-27"
Rev ""
Comp ""
Comment1 ""
Comment2 ""
Comment3 ""
Comment4 ""
$EndDescr
$Comp
L controllerSchematic-rescue:ATmega328P-PU-MCU_Microchip_ATmega U2
U 1 1 5FE6BBD5
P 4700 4350
F 0 "U2" H 4059 4396 50  0000 R CNN
F 1 "ATmega328P-PU" H 4059 4305 50  0000 R CNN
F 2 "Package_DIP:DIP-28_W7.62mm" H 4700 4350 50  0001 C CIN
F 3 "http://ww1.microchip.com/downloads/en/DeviceDoc/ATmega328_P%20AVR%20MCU%20with%20picoPower%20Technology%20Data%20Sheet%2040001984A.pdf" H 4700 4350 50  0001 C CNN
	1    4700 4350
	1    0    0    -1  
$EndComp
$Comp
L Device:Crystal_Small Y1
U 1 1 5FE6BCFA
P 6050 4000
F 0 "Y1" V 6004 4088 50  0000 L CNN
F 1 "12MHz" V 6095 4088 50  0000 L CNN
F 2 "" H 6050 4000 50  0001 C CNN
F 3 "~" H 6050 4000 50  0001 C CNN
	1    6050 4000
	0    1    1    0   
$EndComp
$Comp
L Device:C_Small C6
U 1 1 5FE6BE7B
P 5750 3850
F 0 "C6" V 5521 3850 50  0000 C CNN
F 1 "22 pF" V 5600 3900 50  0000 C CNN
F 2 "" H 5750 3850 50  0001 C CNN
F 3 "~" H 5750 3850 50  0001 C CNN
	1    5750 3850
	-1   0    0    1   
$EndComp
$Comp
L Device:C_Small C5
U 1 1 5FE6BEBA
P 5400 3950
F 0 "C5" H 5492 3996 50  0000 L CNN
F 1 "22 pF" V 5500 3700 50  0000 L CNN
F 2 "" H 5400 3950 50  0001 C CNN
F 3 "~" H 5400 3950 50  0001 C CNN
	1    5400 3950
	1    0    0    -1  
$EndComp
$Comp
L power:GNDREF #PWR014
U 1 1 5FE6BF30
P 5400 4050
F 0 "#PWR014" H 5400 3800 50  0001 C CNN
F 1 "GNDREF" H 5405 3877 50  0001 C CNN
F 2 "" H 5400 4050 50  0001 C CNN
F 3 "" H 5400 4050 50  0001 C CNN
	1    5400 4050
	1    0    0    -1  
$EndComp
$Comp
L power:GNDREF #PWR015
U 1 1 5FE6BF5E
P 5750 3950
F 0 "#PWR015" H 5750 3700 50  0001 C CNN
F 1 "GNDREF" H 5755 3777 50  0001 C CNN
F 2 "" H 5750 3950 50  0001 C CNN
F 3 "" H 5750 3950 50  0001 C CNN
	1    5750 3950
	1    0    0    -1  
$EndComp
$Comp
L power:+3.3V #PWR010
U 1 1 5FE6C456
P 4800 2750
F 0 "#PWR010" H 4800 2600 50  0001 C CNN
F 1 "+3.3V" H 4815 2923 50  0001 C CNN
F 2 "" H 4800 2750 50  0001 C CNN
F 3 "" H 4800 2750 50  0001 C CNN
	1    4800 2750
	1    0    0    -1  
$EndComp
$Comp
L power:+3.3V #PWR08
U 1 1 5FE6C484
P 4700 2750
F 0 "#PWR08" H 4700 2600 50  0001 C CNN
F 1 "+3.3V" H 4715 2923 50  0000 C CNN
F 2 "" H 4700 2750 50  0001 C CNN
F 3 "" H 4700 2750 50  0001 C CNN
	1    4700 2750
	1    0    0    -1  
$EndComp
$Comp
L power:+3.3V #PWR06
U 1 1 5FE6C4B2
P 4100 3150
F 0 "#PWR06" H 4100 3000 50  0001 C CNN
F 1 "+3.3V" H 4115 3323 50  0000 C CNN
F 2 "" H 4100 3150 50  0001 C CNN
F 3 "" H 4100 3150 50  0001 C CNN
	1    4100 3150
	1    0    0    -1  
$EndComp
$Comp
L power:GNDREF #PWR09
U 1 1 5FE6C653
P 4700 5850
F 0 "#PWR09" H 4700 5600 50  0001 C CNN
F 1 "GNDREF" H 4705 5677 50  0001 C CNN
F 2 "" H 4700 5850 50  0001 C CNN
F 3 "" H 4700 5850 50  0001 C CNN
	1    4700 5850
	1    0    0    -1  
$EndComp
$Comp
L Switch:SW_Push SW3
U 1 1 5FE6CB79
P 6000 5050
F 0 "SW3" H 6100 5150 50  0000 C CNN
F 1 "~" H 6000 5244 50  0000 C CNN
F 2 "" H 6000 5250 50  0001 C CNN
F 3 "" H 6000 5250 50  0001 C CNN
	1    6000 5050
	1    0    0    -1  
$EndComp
$Comp
L power:GNDREF #PWR024
U 1 1 5FE6CBE7
P 6200 5050
F 0 "#PWR024" H 6200 4800 50  0001 C CNN
F 1 "GNDREF" H 6205 4877 50  0001 C CNN
F 2 "" H 6200 5050 50  0001 C CNN
F 3 "" H 6200 5050 50  0001 C CNN
	1    6200 5050
	1    0    0    -1  
$EndComp
$Comp
L Device:R_Small_US R3
U 1 1 5FE6CCE3
P 5750 4900
F 0 "R3" V 5650 4850 50  0000 L CNN
F 1 "10K" V 5850 4850 50  0000 L CNN
F 2 "" H 5750 4900 50  0001 C CNN
F 3 "~" H 5750 4900 50  0001 C CNN
	1    5750 4900
	0    1    1    0   
$EndComp
$Comp
L power:+3.3V #PWR019
U 1 1 5FE6CD38
P 5850 4900
F 0 "#PWR019" H 5850 4750 50  0001 C CNN
F 1 "+3.3V" H 5865 5073 50  0001 C CNN
F 2 "" H 5850 4900 50  0001 C CNN
F 3 "" H 5850 4900 50  0001 C CNN
	1    5850 4900
	1    0    0    -1  
$EndComp
$Comp
L controllerSchematic-rescue:MAX31855KASA-Sensor_Temperature U5
U 1 1 5FE7769F
P 7350 2700
F 0 "U5" H 7000 3250 50  0000 C CNN
F 1 "MAX31855K" H 6950 3100 50  0000 C CNN
F 2 "Package_SO:SOIC-8_3.9x4.9mm_P1.27mm" H 8350 2350 50  0001 C CIN
F 3 "http://datasheets.maximintegrated.com/en/ds/MAX31855.pdf" H 7350 2700 50  0001 C CNN
	1    7350 2700
	-1   0    0    -1  
$EndComp
$Comp
L Device:Thermocouple TC1
U 1 1 5FE777C8
P 7850 2700
F 0 "TC1" H 7652 2770 50  0000 R CNN
F 1 "Thermocouple" H 7652 2679 50  0000 R CNN
F 2 "" H 7275 2750 50  0001 C CNN
F 3 "~" H 7275 2750 50  0001 C CNN
	1    7850 2700
	-1   0    0    -1  
$EndComp
$Comp
L Switch:SW_SPDT SW2
U 1 1 5FE780DC
P 5800 5600
F 0 "SW2" H 5650 5500 50  0000 L CNN
F 1 "SW_SPDT" H 5550 5400 50  0000 L CNN
F 2 "" H 5800 5600 50  0001 C CNN
F 3 "" H 5800 5600 50  0001 C CNN
	1    5800 5600
	1    0    0    -1  
$EndComp
$Comp
L Device:R_POT_US RV1
U 1 1 5FE782F8
P 6850 4400
F 0 "RV1" H 6783 4446 50  0000 R CNN
F 1 "temp POT" H 6783 4355 50  0000 R CNN
F 2 "" H 6850 4400 50  0001 C CNN
F 3 "~" H 6850 4400 50  0001 C CNN
	1    6850 4400
	-1   0    0    -1  
$EndComp
$Comp
L Device:R_POT_US RV2
U 1 1 5FE783F7
P 7100 4100
F 0 "RV2" H 7032 4146 50  0000 R CNN
F 1 "pump POT" H 7032 4055 50  0000 R CNN
F 2 "" H 7100 4100 50  0001 C CNN
F 3 "~" H 7100 4100 50  0001 C CNN
	1    7100 4100
	-1   0    0    -1  
$EndComp
$Comp
L controllerSchematic-rescue:AVR-ISP-6-Connector J3
U 1 1 5FE784E3
P 8000 3650
F 0 "J3" H 7720 3746 50  0000 R CNN
F 1 "AVR-ISP-6" H 7720 3655 50  0000 R CNN
F 2 "" V 7750 3700 50  0001 C CNN
F 3 " ~" H 6725 3100 50  0001 C CNN
	1    8000 3650
	-1   0    0    -1  
$EndComp
$Comp
L Device:C_Small C3
U 1 1 5FE7867A
P 4600 2750
F 0 "C3" V 4400 2600 50  0000 L CNN
F 1 "100 nF" V 4500 2500 50  0000 L CNN
F 2 "" H 4600 2750 50  0001 C CNN
F 3 "~" H 4600 2750 50  0001 C CNN
	1    4600 2750
	0    1    1    0   
$EndComp
$Comp
L Connector:Barrel_Jack J1
U 1 1 5FE78936
P 2050 6650
F 0 "J1" H 2105 6975 50  0000 C CNN
F 1 "Barrel_Jack" H 2000 6850 50  0000 C CNN
F 2 "" H 2100 6610 50  0001 C CNN
F 3 "~" H 2100 6610 50  0001 C CNN
	1    2050 6650
	1    0    0    -1  
$EndComp
$Comp
L Device:CP1_Small C1
U 1 1 5FE78A3F
P 2850 6650
F 0 "C1" H 2941 6696 50  0000 L CNN
F 1 "10 uF" H 2900 6550 50  0000 L CNN
F 2 "" H 2850 6650 50  0001 C CNN
F 3 "~" H 2850 6650 50  0001 C CNN
	1    2850 6650
	1    0    0    -1  
$EndComp
$Comp
L Device:CP1_Small C2
U 1 1 5FE78A9B
P 3650 6650
F 0 "C2" H 3741 6696 50  0000 L CNN
F 1 "10 uF" H 3741 6605 50  0000 L CNN
F 2 "" H 3650 6650 50  0001 C CNN
F 3 "~" H 3650 6650 50  0001 C CNN
	1    3650 6650
	1    0    0    -1  
$EndComp
$Comp
L Regulator_Linear:LD1117S33TR_SOT223 U1
U 1 1 5FE78DE1
P 3350 6550
F 0 "U1" H 3350 6792 50  0000 C CNN
F 1 "LD1117" H 3350 6701 50  0000 C CNN
F 2 "Package_TO_SOT_SMD:SOT-223-3_TabPin2" H 3350 6750 50  0001 C CNN
F 3 "http://www.st.com/st-web-ui/static/active/en/resource/technical/document/datasheet/CD00000544.pdf" H 3450 6300 50  0001 C CNN
	1    3350 6550
	1    0    0    -1  
$EndComp
$Comp
L Device:LED_Small D1
U 1 1 5FE78EBB
P 4200 6650
F 0 "D1" V 4246 6582 50  0000 R CNN
F 1 "power LED" V 4155 6582 50  0000 R CNN
F 2 "" V 4200 6650 50  0001 C CNN
F 3 "~" V 4200 6650 50  0001 C CNN
	1    4200 6650
	0    -1   -1   0   
$EndComp
$Comp
L Device:LED_Small D2
U 1 1 5FE791DF
P 5350 2750
F 0 "D2" H 5300 2950 50  0000 R CNN
F 1 "LED" H 5350 2850 50  0000 R CNN
F 2 "" V 5350 2750 50  0001 C CNN
F 3 "~" V 5350 2750 50  0001 C CNN
	1    5350 2750
	1    0    0    -1  
$EndComp
$Comp
L Device:LED_Small D3
U 1 1 5FE79307
P 6300 2750
F 0 "D3" H 6250 2550 50  0000 L CNN
F 1 "LED" H 6200 2650 50  0000 L CNN
F 2 "" V 6300 2750 50  0001 C CNN
F 3 "~" V 6300 2750 50  0001 C CNN
	1    6300 2750
	-1   0    0    1   
$EndComp
$Comp
L Device:R_Small_US R2
U 1 1 5FE7948F
P 5550 2750
F 0 "R2" V 5700 2700 50  0000 L CNN
F 1 "220" V 5618 2705 50  0000 L CNN
F 2 "" H 5550 2750 50  0001 C CNN
F 3 "~" H 5550 2750 50  0001 C CNN
	1    5550 2750
	0    1    -1   0   
$EndComp
$Comp
L Device:R_Small_US R5
U 1 1 5FE79533
P 6100 2750
F 0 "R5" V 5900 2700 50  0000 L CNN
F 1 "220" V 6000 2700 50  0000 L CNN
F 2 "" H 6100 2750 50  0001 C CNN
F 3 "~" H 6100 2750 50  0001 C CNN
	1    6100 2750
	0    1    1    0   
$EndComp
$Comp
L Relay_SolidState:S102S02 U3
U 1 1 5FE79778
P 5550 1800
F 0 "U3" H 5550 2125 50  0000 C CNN
F 1 "SSR-40DA" H 5550 2034 50  0000 C CNN
F 2 "Package_SIP:SIP4_Sharp-SSR_P7.62mm_Straight" H 5350 1600 50  0001 L CIN
F 3 "http://www.sharp-world.com/products/device/lineup/data/pdf/datasheet/s102s02_e.pdf" H 5515 1800 50  0001 L CNN
	1    5550 1800
	1    0    0    -1  
$EndComp
$Comp
L Device:Heater R4
U 1 1 5FE79903
P 5850 2050
F 0 "R4" H 5950 2050 50  0000 L CNN
F 1 "Heater" H 5950 1950 50  0000 L CNN
F 2 "" V 5780 2050 50  0001 C CNN
F 3 "~" H 5850 2050 50  0001 C CNN
	1    5850 2050
	-1   0    0    -1  
$EndComp
$Comp
L Device:Electromagnetic_Actor L1
U 1 1 5FE7A33C
P 6900 2100
F 0 "L1" H 7030 2196 50  0000 L CNN
F 1 "Diaphragm pump" H 7030 2105 50  0000 L CNN
F 2 "" V 6875 2200 50  0001 C CNN
F 3 "~" V 6875 2200 50  0001 C CNN
	1    6900 2100
	1    0    0    -1  
$EndComp
$Comp
L Device:R_Small_US R1
U 1 1 5FE7AA60
P 4100 6550
F 0 "R1" V 3895 6550 50  0000 C CNN
F 1 "220" V 3986 6550 50  0000 C CNN
F 2 "" H 4100 6550 50  0001 C CNN
F 3 "~" H 4100 6550 50  0001 C CNN
	1    4100 6550
	0    1    1    0   
$EndComp
$Comp
L power:+5V #PWR01
U 1 1 5FE7AE60
P 2350 6550
F 0 "#PWR01" H 2350 6400 50  0001 C CNN
F 1 "+5V" H 2300 6700 50  0000 C CNN
F 2 "" H 2350 6550 50  0001 C CNN
F 3 "" H 2350 6550 50  0001 C CNN
	1    2350 6550
	1    0    0    -1  
$EndComp
Wire Wire Line
	3650 6550 4000 6550
Connection ~ 3650 6550
Wire Wire Line
	3650 6750 4200 6750
$Comp
L power:+3.3V #PWR04
U 1 1 5FE7B273
P 3650 6550
F 0 "#PWR04" H 3650 6400 50  0001 C CNN
F 1 "+3.3V" H 3665 6723 50  0000 C CNN
F 2 "" H 3650 6550 50  0001 C CNN
F 3 "" H 3650 6550 50  0001 C CNN
	1    3650 6550
	1    0    0    -1  
$EndComp
$Comp
L power:GNDREF #PWR02
U 1 1 5FE7B2F0
P 2850 6750
F 0 "#PWR02" H 2850 6500 50  0001 C CNN
F 1 "GNDREF" H 2855 6577 50  0001 C CNN
F 2 "" H 2850 6750 50  0001 C CNN
F 3 "" H 2850 6750 50  0001 C CNN
	1    2850 6750
	1    0    0    -1  
$EndComp
$Comp
L power:GNDREF #PWR03
U 1 1 5FE7B366
P 3350 6850
F 0 "#PWR03" H 3350 6600 50  0001 C CNN
F 1 "GNDREF" H 3355 6677 50  0001 C CNN
F 2 "" H 3350 6850 50  0001 C CNN
F 3 "" H 3350 6850 50  0001 C CNN
	1    3350 6850
	1    0    0    -1  
$EndComp
$Comp
L power:GNDREF #PWR05
U 1 1 5FE7B3DC
P 3650 6750
F 0 "#PWR05" H 3650 6500 50  0001 C CNN
F 1 "GNDREF" H 3655 6577 50  0001 C CNN
F 2 "" H 3650 6750 50  0001 C CNN
F 3 "" H 3650 6750 50  0001 C CNN
	1    3650 6750
	1    0    0    -1  
$EndComp
Connection ~ 3650 6750
$Comp
L power:GNDREF #PWR07
U 1 1 5FE7CC4C
P 4500 2750
F 0 "#PWR07" H 4500 2500 50  0001 C CNN
F 1 "GNDREF" H 4505 2577 50  0001 C CNN
F 2 "" H 4500 2750 50  0001 C CNN
F 3 "" H 4500 2750 50  0001 C CNN
	1    4500 2750
	1    0    0    -1  
$EndComp
$Comp
L power:GNDREF #PWR011
U 1 1 5FE7CCDE
P 5000 2750
F 0 "#PWR011" H 5000 2500 50  0001 C CNN
F 1 "GNDREF" H 5005 2577 50  0001 C CNN
F 2 "" H 5000 2750 50  0001 C CNN
F 3 "" H 5000 2750 50  0001 C CNN
	1    5000 2750
	1    0    0    -1  
$EndComp
Wire Wire Line
	5300 4650 5650 4650
Wire Wire Line
	5650 4650 5650 4900
Wire Wire Line
	5650 5050 5800 5050
Wire Wire Line
	5300 5050 5450 5050
Wire Wire Line
	5450 5050 5450 5600
Wire Wire Line
	5450 5600 5600 5600
$Comp
L power:+3.3V #PWR021
U 1 1 5FE7DAC7
P 6000 5500
F 0 "#PWR021" H 6000 5350 50  0001 C CNN
F 1 "+3.3V" H 6015 5673 50  0001 C CNN
F 2 "" H 6000 5500 50  0001 C CNN
F 3 "" H 6000 5500 50  0001 C CNN
	1    6000 5500
	1    0    0    -1  
$EndComp
$Comp
L power:GNDREF #PWR022
U 1 1 5FE7DB44
P 6100 5700
F 0 "#PWR022" H 6100 5450 50  0001 C CNN
F 1 "GNDREF" H 6105 5527 50  0001 C CNN
F 2 "" H 6100 5700 50  0001 C CNN
F 3 "" H 6100 5700 50  0001 C CNN
	1    6100 5700
	1    0    0    -1  
$EndComp
Connection ~ 5650 4900
Wire Wire Line
	5650 4900 5650 5050
$Comp
L Connector:Conn_01x04_Female J2
U 1 1 5FE7E95A
P 6250 4550
F 0 "J2" H 6278 4526 50  0001 L CNN
F 1 "Qwiic SerLCD" H 6278 4480 50  0000 L CNN
F 2 "" H 6250 4550 50  0001 C CNN
F 3 "~" H 6250 4550 50  0001 C CNN
	1    6250 4550
	1    0    0    -1  
$EndComp
$Comp
L power:+3.3V #PWR020
U 1 1 5FE7ECAF
P 5950 4550
F 0 "#PWR020" H 5950 4400 50  0001 C CNN
F 1 "+3.3V" H 5965 4723 50  0001 C CNN
F 2 "" H 5950 4550 50  0001 C CNN
F 3 "" H 5950 4550 50  0001 C CNN
	1    5950 4550
	1    0    0    -1  
$EndComp
$Comp
L power:GNDREF #PWR018
U 1 1 5FE7ED2F
P 5850 4400
F 0 "#PWR018" H 5850 4150 50  0001 C CNN
F 1 "GNDREF" H 5855 4227 50  0001 C CNN
F 2 "" H 5850 4400 50  0001 C CNN
F 3 "" H 5850 4400 50  0001 C CNN
	1    5850 4400
	1    0    0    -1  
$EndComp
Wire Wire Line
	6050 4400 6050 4450
Wire Wire Line
	5950 4550 6050 4550
Wire Wire Line
	6100 5700 6000 5700
Wire Wire Line
	5300 4550 5700 4550
Wire Wire Line
	5700 4550 5700 4750
Wire Wire Line
	5700 4750 6050 4750
Wire Wire Line
	5300 4450 5750 4450
Wire Wire Line
	5750 4450 5750 4650
Wire Wire Line
	5750 4650 6050 4650
Wire Wire Line
	5850 4400 6050 4400
Wire Wire Line
	5300 4350 6700 4350
Wire Wire Line
	6700 4350 6700 4400
Wire Wire Line
	6950 4100 6500 4100
Wire Wire Line
	6500 4100 6500 4250
Wire Wire Line
	6500 4250 5300 4250
$Comp
L power:GNDREF #PWR029
U 1 1 5FE82236
P 6850 4550
F 0 "#PWR029" H 6850 4300 50  0001 C CNN
F 1 "GNDREF" H 6855 4377 50  0001 C CNN
F 2 "" H 6850 4550 50  0001 C CNN
F 3 "" H 6850 4550 50  0001 C CNN
	1    6850 4550
	1    0    0    -1  
$EndComp
$Comp
L power:GNDREF #PWR031
U 1 1 5FE822AC
P 7100 4250
F 0 "#PWR031" H 7100 4000 50  0001 C CNN
F 1 "GNDREF" H 7105 4077 50  0001 C CNN
F 2 "" H 7100 4250 50  0001 C CNN
F 3 "" H 7100 4250 50  0001 C CNN
	1    7100 4250
	1    0    0    -1  
$EndComp
$Comp
L power:+3.3V #PWR028
U 1 1 5FE82329
P 6850 4250
F 0 "#PWR028" H 6850 4100 50  0001 C CNN
F 1 "+3.3V" H 6865 4423 50  0001 C CNN
F 2 "" H 6850 4250 50  0001 C CNN
F 3 "" H 6850 4250 50  0001 C CNN
	1    6850 4250
	1    0    0    -1  
$EndComp
$Comp
L power:+3.3V #PWR030
U 1 1 5FE8239F
P 7100 3950
F 0 "#PWR030" H 7100 3800 50  0001 C CNN
F 1 "+3.3V" H 7115 4123 50  0001 C CNN
F 2 "" H 7100 3950 50  0001 C CNN
F 3 "" H 7100 3950 50  0001 C CNN
	1    7100 3950
	1    0    0    -1  
$EndComp
Wire Wire Line
	5300 3850 5400 3850
Wire Wire Line
	5300 3750 5750 3750
Wire Wire Line
	5750 3750 6050 3750
Wire Wire Line
	6050 3750 6050 3900
Connection ~ 5750 3750
Wire Wire Line
	5400 3850 5600 3850
Wire Wire Line
	5600 3850 5600 4100
Wire Wire Line
	5600 4100 6050 4100
Connection ~ 5400 3850
Wire Wire Line
	5300 3450 6950 3450
Wire Wire Line
	6950 3450 6950 3350
Wire Wire Line
	6950 3350 7300 3350
Wire Wire Line
	7300 3350 7300 3550
Wire Wire Line
	5300 3550 6750 3550
Wire Wire Line
	7150 3550 7150 3450
Wire Wire Line
	5800 5050 5800 5200
Wire Wire Line
	5800 5200 7600 5200
Connection ~ 5800 5050
Wire Wire Line
	5300 3650 6650 3650
Wire Wire Line
	7300 3550 7600 3550
Wire Wire Line
	7150 3450 7600 3450
Wire Wire Line
	7600 3750 7600 5200
Wire Wire Line
	6950 2800 6950 3150
Wire Wire Line
	6950 3150 5300 3150
Wire Wire Line
	6950 2600 6750 2600
Wire Wire Line
	6750 2600 6750 3550
Connection ~ 6750 3550
Wire Wire Line
	6750 3550 7150 3550
Wire Wire Line
	6950 2500 6650 2500
Wire Wire Line
	6650 2500 6650 3650
Connection ~ 6650 3650
Wire Wire Line
	6650 3650 7600 3650
$Comp
L power:GNDREF #PWR035
U 1 1 5FE8C1B0
P 8100 4050
F 0 "#PWR035" H 8100 3800 50  0001 C CNN
F 1 "GNDREF" H 8105 3877 50  0001 C CNN
F 2 "" H 8100 4050 50  0001 C CNN
F 3 "" H 8100 4050 50  0001 C CNN
	1    8100 4050
	1    0    0    -1  
$EndComp
$Comp
L power:GNDREF #PWR033
U 1 1 5FE8C226
P 7350 3100
F 0 "#PWR033" H 7350 2850 50  0001 C CNN
F 1 "GNDREF" H 7355 2927 50  0001 C CNN
F 2 "" H 7350 3100 50  0001 C CNN
F 3 "" H 7350 3100 50  0001 C CNN
	1    7350 3100
	1    0    0    -1  
$EndComp
$Comp
L power:+3.3V #PWR034
U 1 1 5FE8C2AA
P 8100 3150
F 0 "#PWR034" H 8100 3000 50  0001 C CNN
F 1 "+3.3V" H 8115 3323 50  0001 C CNN
F 2 "" H 8100 3150 50  0001 C CNN
F 3 "" H 8100 3150 50  0001 C CNN
	1    8100 3150
	1    0    0    -1  
$EndComp
$Comp
L power:+3.3V #PWR032
U 1 1 5FE8C320
P 7350 2300
F 0 "#PWR032" H 7350 2150 50  0001 C CNN
F 1 "+3.3V" H 7365 2473 50  0001 C CNN
F 2 "" H 7350 2300 50  0001 C CNN
F 3 "" H 7350 2300 50  0001 C CNN
	1    7350 2300
	1    0    0    -1  
$EndComp
Wire Wire Line
	5300 3350 6000 3350
Wire Wire Line
	5300 3250 5650 3250
$Comp
L power:GNDREF #PWR012
U 1 1 5FE9030C
P 5250 1900
F 0 "#PWR012" H 5250 1650 50  0001 C CNN
F 1 "GNDREF" H 5255 1727 50  0001 C CNN
F 2 "" H 5250 1900 50  0001 C CNN
F 3 "" H 5250 1900 50  0001 C CNN
	1    5250 1900
	1    0    0    -1  
$EndComp
$Comp
L power:GNDREF #PWR023
U 1 1 5FE90382
P 6150 1900
F 0 "#PWR023" H 6150 1650 50  0001 C CNN
F 1 "GNDREF" H 6155 1727 50  0001 C CNN
F 2 "" H 6150 1900 50  0001 C CNN
F 3 "" H 6150 1900 50  0001 C CNN
	1    6150 1900
	1    0    0    -1  
$EndComp
Wire Wire Line
	6000 1700 6150 1700
NoConn ~ 5300 5550
NoConn ~ 5300 5450
NoConn ~ 5300 5350
NoConn ~ 5300 5250
NoConn ~ 5300 5150
NoConn ~ 5300 4950
NoConn ~ 5300 4850
NoConn ~ 5300 4050
NoConn ~ 5300 4150
Connection ~ 2850 6550
Wire Wire Line
	2750 6550 2850 6550
Wire Wire Line
	2350 6750 2850 6750
$Comp
L Switch:SW_SPST SW1
U 1 1 5FEC29D4
P 2550 6550
F 0 "SW1" H 2550 6785 50  0000 C CNN
F 1 "SW_SPST" H 2600 6700 50  0000 C CNN
F 2 "" H 2550 6550 50  0001 C CNN
F 3 "" H 2550 6550 50  0001 C CNN
	1    2550 6550
	1    0    0    -1  
$EndComp
Connection ~ 2350 6550
Wire Wire Line
	2850 6550 3050 6550
$Comp
L power:GNDREF #PWR025
U 1 1 5FEDA5D1
P 6400 2750
F 0 "#PWR025" H 6400 2500 50  0001 C CNN
F 1 "GNDREF" H 6405 2577 50  0001 C CNN
F 2 "" H 6400 2750 50  0001 C CNN
F 3 "" H 6400 2750 50  0001 C CNN
	1    6400 2750
	1    0    0    -1  
$EndComp
$Comp
L power:GNDREF #PWR013
U 1 1 5FEDA64A
P 5250 2750
F 0 "#PWR013" H 5250 2500 50  0001 C CNN
F 1 "GNDREF" H 5255 2577 50  0001 C CNN
F 2 "" H 5250 2750 50  0001 C CNN
F 3 "" H 5250 2750 50  0001 C CNN
	1    5250 2750
	1    0    0    -1  
$EndComp
$Comp
L power:AC #PWR016
U 1 1 5FE9BED0
P 5850 1700
F 0 "#PWR016" H 5850 1600 50  0001 C CNN
F 1 "AC" H 5850 1975 50  0000 C CNN
F 2 "" H 5850 1700 50  0001 C CNN
F 3 "" H 5850 1700 50  0001 C CNN
	1    5850 1700
	1    0    0    -1  
$EndComp
$Comp
L power:AC #PWR026
U 1 1 5FE9D206
P 6900 1600
F 0 "#PWR026" H 6900 1500 50  0001 C CNN
F 1 "AC" H 6900 1875 50  0000 C CNN
F 2 "" H 6900 1600 50  0001 C CNN
F 3 "" H 6900 1600 50  0001 C CNN
	1    6900 1600
	1    0    0    -1  
$EndComp
$Comp
L power:NEUT #PWR017
U 1 1 5FE9E57B
P 5850 2200
F 0 "#PWR017" H 5850 2050 50  0001 C CNN
F 1 "NEUT" H 5868 2373 50  0000 C CNN
F 2 "" H 5850 2200 50  0001 C CNN
F 3 "" H 5850 2200 50  0001 C CNN
	1    5850 2200
	-1   0    0    1   
$EndComp
$Comp
L power:NEUT #PWR027
U 1 1 5FE9E62E
P 6900 2200
F 0 "#PWR027" H 6900 2050 50  0001 C CNN
F 1 "NEUT" H 6918 2373 50  0000 C CNN
F 2 "" H 6900 2200 50  0001 C CNN
F 3 "" H 6900 2200 50  0001 C CNN
	1    6900 2200
	-1   0    0    1   
$EndComp
Wire Wire Line
	5650 2400 5100 2400
Wire Wire Line
	5100 2400 5100 1700
Wire Wire Line
	5100 1700 5250 1700
$Comp
L Device:C_Small C4
U 1 1 5FE7875A
P 4900 2750
F 0 "C4" V 4700 2800 50  0000 L CNN
F 1 "100 nF" V 4800 2700 50  0000 L CNN
F 2 "" H 4900 2750 50  0001 C CNN
F 3 "~" H 4900 2750 50  0001 C CNN
	1    4900 2750
	0    1    1    0   
$EndComp
Wire Wire Line
	4800 2750 4800 2850
Connection ~ 4800 2750
Wire Wire Line
	4700 2750 4700 2850
Connection ~ 4700 2750
Connection ~ 5650 2750
Wire Wire Line
	5650 2750 5650 3250
Connection ~ 6000 2750
Wire Wire Line
	6000 2750 6000 3350
Wire Wire Line
	6000 1700 6000 2750
Wire Wire Line
	5650 2400 5650 2750
Connection ~ 2850 6750
$Comp
L Relay_SolidState:S102S01 U?
U 1 1 60070081
P 6450 1800
F 0 "U?" H 6450 2125 50  0000 C CNN
F 1 "S102S01" H 6450 2034 50  0000 C CNN
F 2 "Package_SIP:SIP4_Sharp-SSR_P7.62mm_Straight" H 6250 1600 50  0001 L CIN
F 3 "http://www.sharp-world.com/products/device/lineup/data/pdf/datasheet/s102s01_e.pdf" H 6450 1800 50  0001 L CNN
	1    6450 1800
	1    0    0    -1  
$EndComp
$Comp
L Device:Varistor RV?
U 1 1 6009169F
P 6900 1750
F 0 "RV?" H 7003 1796 50  0000 L CNN
F 1 "Varistor" H 7003 1705 50  0000 L CNN
F 2 "" V 6830 1750 50  0001 C CNN
F 3 "~" H 6900 1750 50  0001 C CNN
	1    6900 1750
	1    0    0    -1  
$EndComp
Wire Wire Line
	6750 1900 6900 1900
Connection ~ 6900 1900
Wire Wire Line
	6750 1700 6750 1600
Wire Wire Line
	6750 1600 6900 1600
Connection ~ 6900 1600
$EndSCHEMATC
